[
  {
        "model": "notificator.userprofile",
        "pk": 1,
        "fields": {
            "cameras": [1],
            "user": 6
        }
    },
  {
        "model": "notificator.userprofile",
        "pk": 2,
        "fields": {
            "cameras": [1, 2],
            "user": 7
        }
    },
      {
        "model": "notificator.userprofile",
        "pk": 3,
        "fields": {
            "cameras": [1, 2, 3],
            "user": 8
        }
    },
  {
        "model": "notificator.userprofile",
        "pk": 4,
        "fields": {
            "cameras": [1, 2, 3, 4],
            "user": 9
        }
    },
    {
        "model": "notificator.userprofile",
        "pk": 5,
        "fields": {
            "cameras": [1, 2, 3, 4, 5],
            "user": 10
        }
    }
]
